{
  "type": "service_account",
  "project_id": "level-dragon-150409",
  "private_key_id": "ce5f00d9b0b743f3015a9f52ca8da1e75664c7b8",
  "private_key": "-----BEGIN PRIVATE KEY-----\nMIIEvgIBADANBgkqhkiG9w0BAQEFAASCBKgwggSkAgEAAoIBAQDe7HEqItktvUkv\n14ITqeCDXPI6IWkxWw+TZ9JnTu7/phKFT80zBUg8et7jgECeOdLtVH/IW+5IUagM\noh5rO4OyPuv6lTxh0dI0zwkU7gM+XBkJdCUGezxmzAwluZgpL4CWAZ9kmj+4npNp\nOjQ5ddTeEXYTEV7RKvCZcMP+a1EenEgYtUbTIh0MkIizK+sRKTXsgwNXLQA+rF4a\nOQIss6rckeGmfpThOQjR/x/FL10SHBM+R/fEBBuioVvJVYosd+EN1N711alQRV1q\nCVcwaQ2+sd+iDk10m2N4NYbtXkfMznHk2YzZfzNZwO6pOSw5bY2r3rbG3wpby85/\naS79+7O7AgMBAAECggEAZjvKFDhiIFNgJpQvf+QW5jewkM80xmFMDd59xEoTWmPn\nt4KnCSCBhdcVtADj4YyEOrpXVeQvLbRhHNYWnDfxiEPKBiP9yqCmxfgy4onbK/Sh\nuM+ukT/gLgajBYQNj8nMrz60QjdpRLpYwVfjjnyG8IbSfyEmukd2ivAHunyt+Zp4\nOn8tXQp4n1Jc0wxBEaGvgUAUlhs++rzPfSTILk5/4SqXr8kZ+rOrlP40E8Ti3mA/\nLsRO+ZocB7DIdUav4J1OLKNd1rTI9wPOl+FYgFPbPHVqf7GEA0Sxo5hxQbPYb4+x\nQIHzPKUxlESpeMy+WRR+c2Ck/oSh/tcnrzh8w4VstQKBgQD4++xPFgx1bVpzk+5e\n4QgEA2AK1dcjF/boMIoT3AZS8TMEh0/SCXq+1Bdljf+sg5xqtmiN1IP+m8ihdACt\nWTdqvrPB1TFnfXTq0qtzXZT7UoLfh18fhsIS+cfCbe6SB9ksSx0wLEOY2c67Mvvx\n9tLdGb3hmygblWhvqSsltmMWDwKBgQDlNIdQwQIipsvZnWBkW0X1vSNqP1EtsHT0\nf0ZzmgdpNFUVI4C8e1bQqoQEC9CqmtkhdXu8HSdn7YEPOA9Cih5LsjbGMCAiokMC\nEo+tGdUGf+NBBAgcEucgYCgYVcaqL66mZZXQSx+sJx0/LrCQFJxWbi7q5/6YYIz9\nyv5P6EdTlQKBgBiVj1yzuaEynfbBiYzWvVrgFnCbcrWlXRzKBig11m4EINx2m9wK\nUZNcD79YSQF4sU4cGrC+ZhYSvbmrYZG8OGuSzt75tPoZ+hxhlso6WEaEfCWkETFk\nte73uNCq2B6VJc1o0UX7aOVDxFTZkOTwURvBuez3y/sFQp2b34XGv3vjAoGBALbO\nVHZV2gwlGETyPiUMnxnFxm9BHM/iAwXWVSxyVyLTeGCptk2d2boHpc9MVRsc8by7\n5Po+DmXXia3HunQJkOwysXkUfSziWatXfnxDNCJA8dGzE3zAntK1noT6NL8b1KIm\nN3yvzg0SDUONS4k+xwowSv9UFT0XFJx+wKKe0fSZAoGBANjFaXLvRZv3jCMqz/Gs\nwhCu011klvkDTialBji8olL2rAKhlgi0dkeO5X1dBMPrpt9/zYsgGzTIC0QLgnHw\nhql5qFnxpdPWXm+VNqeQOR7KzwAFdAWAYCYRQyTPIoquwgrzClyuOE0V75AR1jie\nFUKHKS0qn6339M5/spG3F1zR\n-----END PRIVATE KEY-----\n",
  "client_email": "cloudservice@level-dragon-150409.iam.gserviceaccount.com",
  "client_id": "117280076673039198087",
  "auth_uri": "https://accounts.google.com/o/oauth2/auth",
  "token_uri": "https://accounts.google.com/o/oauth2/token",
  "auth_provider_x509_cert_url": "https://www.googleapis.com/oauth2/v1/certs",
  "client_x509_cert_url": "https://www.googleapis.com/robot/v1/metadata/x509/cloudservice%40level-dragon-150409.iam.gserviceaccount.com"
}
